<svg xmlns="http://www.w3.org/2000/svg" width="15" height="27" viewBox="0 0 15 27">
  <defs>
    <style>
      .cls-1 {
        fill: #76c38f;
        fill-rule: evenodd;
      }
    </style>
  </defs>
  <path id="Right_arrow" data-name="Right arrow" class="cls-1" d="M1079.57,338.957l-12.05-12.024a1.475,1.475,0,0,0-2.52,1.043L1071.32,340,1065,352.024a1.475,1.475,0,0,0,.91,1.363,1.523,1.523,0,0,0,.57.113,1.471,1.471,0,0,0,1.04-.432l12.05-12.024A1.481,1.481,0,0,0,1079.57,338.957Z" transform="translate(-1065 -326.5)"/>
</svg>
